<?xml version="1.0" encoding="UTF-8" standalone="no"?>
<!-- Created with Inkscape (http://www.inkscape.org/) -->

<svg
   width="500mm"
   height="400mm"
   viewBox="0 0 500 400"
   version="1.1"
   id="svg5"
   xml:space="preserve"
   inkscape:version="1.2.2 (b0a8486541, 2022-12-01)"
   sodipodi:docname="cover.svg"
   inkscape:export-filename="cover2.png"
   inkscape:export-xdpi="97.535995"
   inkscape:export-ydpi="97.535995"
   xmlns:inkscape="http://www.inkscape.org/namespaces/inkscape"
   xmlns:sodipodi="http://sodipodi.sourceforge.net/DTD/sodipodi-0.dtd"
   xmlns:xlink="http://www.w3.org/1999/xlink"
   xmlns="http://www.w3.org/2000/svg"
   xmlns:svg="http://www.w3.org/2000/svg"><sodipodi:namedview
     id="namedview7"
     pagecolor="#ffffff"
     bordercolor="#666666"
     borderopacity="1.0"
     inkscape:showpageshadow="2"
     inkscape:pageopacity="0.0"
     inkscape:pagecheckerboard="0"
     inkscape:deskcolor="#d1d1d1"
     inkscape:document-units="mm"
     showgrid="false"
     inkscape:zoom="0.17184913"
     inkscape:cx="-660.46305"
     inkscape:cy="398.60545"
     inkscape:window-width="1205"
     inkscape:window-height="1034"
     inkscape:window-x="715"
     inkscape:window-y="21"
     inkscape:window-maximized="1"
     inkscape:current-layer="layer1" /><defs
     id="defs2"><linearGradient
       inkscape:collect="always"
       id="linearGradient2039"><stop
         style="stop-color:#000000;stop-opacity:0;"
         offset="0"
         id="stop2035" /><stop
         style="stop-color:#000000;stop-opacity:0.65639579;"
         offset="1"
         id="stop2037" /></linearGradient><radialGradient
       inkscape:collect="always"
       xlink:href="#linearGradient2039"
       id="radialGradient2066"
       cx="305.17593"
       cy="267.07767"
       fx="305.17593"
       fy="267.07767"
       r="271.85254"
       gradientTransform="matrix(1,0,0,0.83971169,0,42.809427)"
       gradientUnits="userSpaceOnUse" /><filter
       inkscape:collect="always"
       style="color-interpolation-filters:sRGB"
       id="filter7243"
       x="-0.57737655"
       y="-0.57737655"
       width="2.1547531"
       height="2.1547531"><feGaussianBlur
         inkscape:collect="always"
         stdDeviation="10.693061"
         id="feGaussianBlur7245" /></filter><filter
       inkscape:collect="always"
       style="color-interpolation-filters:sRGB"
       id="filter7253"
       x="-0.036604224"
       y="-0.053244512"
       width="1.0732084"
       height="1.106489"><feGaussianBlur
         inkscape:collect="always"
         stdDeviation="5.626287"
         id="feGaussianBlur7255" /></filter></defs><g
     inkscape:label="Layer 1"
     inkscape:groupmode="layer"
     id="layer1"
     transform="translate(-55.917625,-77.134918)"><rect
       style="fill:#ffffff;stroke-width:0.396875;stroke-linecap:round;stroke-linejoin:round"
       id="rect234"
       width="500"
       height="400"
       x="55.917625"
       y="77.134918" /><image
       width="682.53967"
       height="539.02155"
       preserveAspectRatio="none"
       xlink:href="data:image/png;base64,iVBORw0KGgoAAAANSUhEUgAABaEAAARyCAYAAAC+4zlmAAAgAElEQVR4nOzd23JU57nv4X+3hCQQ EkhQxAhsp1KpmdvwlcyDeSMu38g6XNdhn+ckc50kqyqzykLGGLFtgTat3qyDpjFOVmKNbr0eDPE8 VV1WKJBevgx9PfrXg6FekmkAAAAAAKBAv+0BAAAAAAC4ukRoAAAAAADKiNAAAAAAAJQRoQEAAAAA KCNCAwAAAABQRoQGAAAAAKCMCA0AAAAAQBkRGgAAAACAMiI0AAAAAABlRGgAAAAAAMqI0AAAAAAA lBGhAQAAAAAoI0IDAAAAAFBGhAYAAAAAoIwIDQAAAABAGREaAAAAAIAyIjQAAAAAAGVEaAAAAAAA yojQAAAAAACUEaEBAAAAACgjQgMAAAAAUEaEBgAAAACgjAgNAAAAAEAZERoAAAAAgDIiNAAAAAAA ZURoAAAAAADKiNAAAAAAAJQRoQEAAAAAKCNCAwAAAABQRoQGAAAAAKCMCA0AAAAAQBkRGgAAAACA MiI0AAAAAABlRGgAAAAAAMqI0AAAAAAAlBGhAQAAAAAoI0IDAAAAAFBGhAYAAAAAoIwIDQAAAABA GREaAAAAAIAyIjQAAAAAAGVEaAAAAAAAyojQAAAAAACUEaEBAAAAACgjQgMAAAAAUEaEBgAAAACg jAgNAAAAAEAZERoAAAAAgDIiNAAAAAAAZURoAAAAAADKiNAAAAAAAJQRoQEAAAAAKCNCAwAAAABQ RoQGAAAAAKCMCA0AAAAAQBkRGgAAAACAMiI0AAAAAABlRGgAAAAAAMqI0AAAAAAAlBGhAQAAAAAo I0IDAAAAAFBGhAYAAAAAoIwIDQAAAABAGREaAAAAAIAyIjQAAAAAAGVEaAAAAAAAyojQAAAAAACU EaEBAAAAACgjQgMAAAAAUEaEBgAAAACgjAgNAAAAAECZ1bYHoIH/aHuADholOU+ykmSt5Vm6Zpxk mNlbVestz9I1kyRnSXpJNlqepWumSU7ffXy9zUE66uTdf61dc9ZucdZucdZucfO128js+ZaLO83s +XY9Lklq6iyz87y1zF5fcHHDzF5fXIsK0dR5Zq9rvaZtbv6a1tot7v+2PQBXie2/S5zsNDfMzxHa C7xmPozQ1q6ZDyO0tWtGhF6OoLU4a7c4a7c4IXVx85C6ESG1qXnQ2ojXFk3Nz4/XM4upNHOS2Wta F7g008/se/ZaPNc2dZ6fI7S1a+7k138LNCFCd43/x5oZfvCxtWtm/MHH1q6Z0QcfW7tmJh98bO0W Z+0WZ+0WZ+0WtxIhdVH9OPYW1Yu1W4a1W5y1a+bsg4+tXTPnH3xs7ZoZ//pvgaac7gIAAAAAUEaE BgAAAACgjAgNAAAAAEAZERoAAAAAgDIiNAAAAAAAZURoAAAAAADKiNAAAAAAAJQRoQEAAAAAKCNC AwAAAABQRoQGAAAAAKCMCA0AAAAAQBkRGgAAAACAMiI0AAAAAABlRGgAAAAAAMqI0AAAAAAAlBGh AQAAAAAoI0IDAAAAAFBGhAYAAAAAoIwIDQAAAABAGREaAAAAAIAyIjQAAAAAAGVEaAAAAAAAyojQ AAAAAACUEaEBAAAAACgjQgMAAAAAUEaEBgAAAACgjAgNAAAAAEAZERoAAAAAgDIiNAAAAAAAZURo AAAAAADKiNAAAAAAAJQRoQEAAAAAKCNCAwAAAABQRoQGAAAAAKCMCA0AAAAAQBkRGgAAAACAMiI0 AAAAAABlRGgAAAAAAMqI0AAAAAAAlBGhAQAAAAAoI0IDAAAAAFBGhAYAAAAAoIwIDQAAAABAGREa AAAAAIAyIjQAAAAAAGVEaAAAAAAAyojQAAAAAACUEaEBAAAAACgjQgMAAAAAUEaEBgAAAACgjAgN AAAAAEAZERoAAAAAgDIiNAAAAAAAZURoAAAAAADKiNAAAAAAAJQRoQEAAAAAKCNCAwAAAABQRoQG AAAAAKCMCA0AAAAAQBkRGgAAAACAMiI0AAAAAABlRGgAAAAAAMqI0AAAAAAAlBGhAQAAAAAoI0ID AAAAAFBGhAYAAAAAoIwIDQAAAABAGREaAAAAAIAyIjQAAAAAAGVW2x4A+Lh9/Z9ftz0C0MA3/+ub tkforK//y34HXWK/W5z9Drrnm/9tzwO6zZXQAAAAAACUEaEBAAAAACgjQgMAAAAAUEaEBgAAAACg jAgNAAAAAECZ1bYHoIHTdw8u7izJSZLzJL2WZ+ma88zWDuiWkySv2x6ig+x30D0nSQZJVtoepGOO 2x4AWMjbJNO2h+iYYfSAZYzaHoCrRoTukrO2B+igYZLxu4+tXzOj/Lx2QHeMY79bhP0Oume+34nQ zZy3PQCwkPM4x2vqPHoAfERE6C65ETdQaWp+5fi1JDfbHKSDhkkmbQ8BNLYW+90ihm0PADQ23+9E 6Ga86QbddD3JZttDdMxZZleP6wGLcX7MJROhu+RakvW2h+igUWYvUm60PUjHrMSTDnSR/W4xb9oe AGhsLbMo4xVNM27vB920Hud4TfUyuxra+XFz43jTkkvnuloAAAAAAMqI0AAAAAAAlBGhAQAAAAAo I0IDAAAAAFBGhAYAAAAAoIwIDQAAAABAGREaAAAAAIAyIjQAAAAAAGVEaAAAAAAAyojQAAAAAACU EaEBAAAAACgjQgMAAAAAUEaEBgAAAACgjAgNAAAAAEAZERoAAAAAgDIiNAAAAAAAZURoAAAAAADK iNAAAAAAAJQRoQEAAAAAKCNCAwAAAABQRoQGAAAAAKCMCA0AAAAAQBkRGgAAAACAMiI0AAAAAABl RGgAAAAAAMqI0AAAAAAAlBGhAQAAAAAoI0IDAAAAAFBGhAYAAAAAoIwIDQAAAABAGREaAAAAAIAy IjQAAAAAAGVEaAAAAAAAyojQAAAAAACUEaEBAAAAACgjQgMAAAAAUEaEBgAAAACgjAgNAAAAAEAZ ERoAAAAAgDIiNAAAAAAAZURoAAAAAADKiNAAAAAAAJQRoQEAAAAAKCNCAwAAAABQRoQGAAAAAKCM CA0AAAAAQBkRGgAAAACAMiI0AAAAAABlRGgAAAAAAMqI0AAAAAAAlBGhAQAAAAAoI0IDAAAAAFBG hAYAAAAAoIwIDQAAAABAGREaAAAAAIAyIjQAAAAAAGVEaAAAAAAAyojQAAAAAACUEaEBAAAAACgj QgMAAAAAUEaEBgAAAACgjAgNAAAAAEAZERoAAAAAgDIiNAAAAAAAZURoAAAAAADKiNAAAAAAAJQR oQEAAAAAKCNCAwAAAABQRoQGAAAAAKDMatsDAFxV3377bdsjdNZXX33V9ghAA/a7xdnvoFvsd4uz 3wF82lwJDQAAAABAGREaAAAAAIAyIjQAAAAAAGVEaAAAAAAAyojQAAAAAACUWW17ABoYvntwcWfv HuMkKy3P0jXnma0d0C1nSY7aHqKD7HfQPWdJ3sQ5XlMnbQ8ALOQ4Sa/tITpmGD1gGedtD8BVI0J3 iRPG5oaZbZyTWL+mRvGks6Tv/vu75GbbU3TQm+Srr75qe4ruOo/9bhH2u6XY7xZkv1vOfL8TFppx UctSvvvv75L1JNfanqRjTu13SxvGv2Vv6jx6AHxEROguud72AB3UTzLN7CTR+jVzntk7xixuLY67 piZxReqy7HeLcdwtx3G3GMfdcq4luRFRpilvui3nWmYRer3tQTpm2vYAV4DXFs2tZPb6YjXWbhGe L7hkInSXrMXJTlPzJ521JFstz9I1Z5ldDc3iNuK4a0qEXt56HHeLcHXMchx3i3HcLWc9yWa8omlK VFjO/LgTtPit3Yjn2qZOMruwSg9obpzZLWDgErluAAAAAACAMiI0AAAAAABlRGgAAAAAAMqI0AAA AAAAlBGhAQAAAAAoI0IDAAAAAFBGhAYAAAAAoIwIDQAAAABAGREaAAAAAIAyIjQAAAAAAGVEaAAA AAAAyojQAAAAAACUEaEBAAAAACgjQgMAAAAAUEaEBgAAAACgjAgNAAAAAEAZERoAAAAAgDIiNAAA AAAAZURoAAAAAADKiNAAAAAAAJQRoQEAAAAAKCNCAwAAAABQRoQGAAAAAKCMCA0AAAAAQBkRGgAA AACAMiI0AAAAAABlRGgAAAAAAMqI0AAAAAAAlBGhAQAAAAAoI0IDAAAAAFBGhAYAAAAAoIwIDQAA AABAGREaAAAAAIAyIjQAAAAAAGVEaAAAAAAAyojQAAAAAACUEaEBAAAAACgjQgMAAAAAUEaEBgAA AACgjAgNAAAAAEAZERoAAAAAgDIiNAAAAAAAZURoAAAAAADKiNAAAAAAAJQRoQEAAAAAKCNCAwAA AABQRoQGAAAAAKCMCA0AAAAAQBkRGgAAAACAMiI0AAAAAABlRGgAAAAAAMqI0AAAAAAAlBGhAQAA AAAoI0IDAAAAAFBGhAYAAAAAoIwIDQAAAABAGREaAAAAAIAyIjQAAAAAAGVEaAAAAAAAyojQAAAA AACUEaEBAAAAACgjQgMAAAAAUEaEBgAAAACgjAgNAAAAAEAZERoAAAAAgDIiNAAAAAAAZURoAAAA AADKiNAAAAAAAJQRoQEAAAAAKCNCAwAAAABQRoQGAAAAAKCMCA0AAAAAQBkRGgAAAACAMiI0AAAA AABlRGgAAAAAAMqstj0ADZwnGbU9RMecJhkmmSZ52/IsXTN892BxwzjumprEcbcsx91iHHfLcdwt xnG3nGGS4yQrbQ/SMY675QyTnGR2zsLFnbQ9wBVwGvtdU2eZfc9O4jxlEfoTl0yE7pLjtgfooHlI HSfptTxL14ziRcqyTmOXXYTjbjli4GIcd8tx3C3Gcbec+XEnyjQjBi5nmNnrCnGmmdO2B7gCrGFz 5/m5B7gPALROHumS9bYH6Khxkmuxfk31M3vSZnGOu+YmEROWtRLH3SJEmeU47hbjuFvO/LjzvNGM Nz+WsxLneIsYtz3AFeC4a27+htFqrN0ivNnGJROhu2QjNs6m5lePryW51eYgHXQW/8xwWdfjuGtq Em9+LMtxt5iztgfoOMfdYhx3y7meZDte0TQlBi7nepKtd//l4lyFurzNzPY8Lu4ks1tz6gHNjeNf 43PpPBUAAAAAAFBGhAYAAAAAoIwIDQAAAABAGREaAAAAAIAyIjQAAAAAAGVEaAAAAAAAyojQAAAA AACUEaEBAAAAACgjQgMAAAAAUEaEBgAAAACgjAgNAAAAAEAZERoAAAAAgDIiNAAAAAAAZURoAAAA AADKiNAAAAAAAJQRoQEAAAAAKCNCAwAAAABQRoQGAAAAAKCMCA0AAAAAQBkRGgAAAACAMiI0AAAA AABlRGgAAAAAAMqI0AAAAAAAlBGhAQAAAAAoI0IDAAAAAFBGhAYAAAAAoIwIDQAAAABAGREaAAAA AIAyIjQAAAAAAGVEaAAAAAAAyojQAAAAAACUEaEBAAAAACgjQgMAAAAAUEaEBgAAAACgjAgNAAAA AEAZERoAAAAAgDIiNAAAAAAAZURoAAAAAADKiNAAAAAAAJQRoQEAAAAAKCNCAwAAAABQRoQGAAAA AKCMCA0AAAAAQBkRGgAAAACAMiI0AAAAAABlRGgAAAAAAMqI0AAAAAAAlBGhAQAAAAAoI0IDAAAA AFBGhAYAAAAAoIwIDQAAAABAGREaAAAAAIAyIjQAAAAAAGVEaAAAAAAAyojQAAAAAACUEaEBAAAA ACgjQgMAAAAAUEaEBgAAAACgjAgNAAAAAEAZERoAAAAAgDIiNAAAAAAAZURoAAAAAADKiNAAAAAA AJQRoQEAAAAAKCNCAwAAAABQRoQGAAAAAKCMCA0AAAAAQBkRGgAAAACAMiI0AAAAAABlVn/LL/b1 11//ll8OAD45X/+X51rg02C/A4BaOt7ivvnmm7ZH+Oi4EhoAAAAAgDIiNAAAAAAAZURoAAAAAADK iNAAAAAAAJQRoQEAAAAAKLPa9gAAV9YoyWnbQ3TMJMl520MAjZ3HfrcI+x10z3mSsyS9tgfpmLO2 B7gChvFc29RZfn6utXbNjdsegKtGhAaochz/3mQRXqRA95wlGbQ9RAfZ76B75t+3w1an6B4BcHnH mV2wwcXN3zQatT0IkIjQAHVWYpdtahLhHrqoH/vdIux30D3z/c6e18xK2wNcAV5bNDd/bWHtFuNN Dy6Zb0OAKptJdtseomMmcbIDXXQj9rtFuDILuudGkq0k19sepGOO2h7gCthKst32EB1zklmEXkty u+VZumac2dX3cIlcfwEAAAAAQBkRGgAAAACAMiI0AAAAAABlRGgAAAAAAMqI0AAAAAAAlBGhAQAA AAAoI0IDAAAAAFBGhAYAAAAAoIwIDQAAAABAGREaAAAAAIAyIjQAAAAAAGVW2x6gLW/evMmLFy/y +vXrDAaDrK+vZ3t7Ozs7O9nd3c3KykrbIwIAAADAlTWdTjMej/Pq1asMBoMcHR3l+Pg45+fnGY/H jT7XyspKVldXc/369WxtbWV7ezu3b9/OtWvX0uv1iv4GXNQnF6Gn02mm02mOjo6yv7+fg4ODPH78 ODdv3sze3l7+8Ic/ZHt7W4QGAAAAgEKTySRnZ2d59uxZDg4O8uTJkzx79iynp6cZDoeZTqcX+jy9 Xi/Xrl3LxsZGdnd387vf/S4PHz7MxsZG+v1+VlZWhOiWfXIR+u3btzk8PMwPP/yQ77//Pi9evMjZ 2Vmm02keP36cW7du5csvv8za2pqDEwAAAAAu2XQ6zWg0yo8//pjHjx/np59+yrNnz/LmzZucnp5m NBo1/nzj8ThnZ2d5+fJlhsNhjo+P8/r169y/fz8PHjzQ+lr2yUTo6XSayWSSwWCQ77//Po8ePcrj x49zenqaJBkOh3n79m0+++yzjEajTKdTByYAAAAAXLL5FdAHBwf561//mlevXuXo6Gipzzkej9+H 6NevX+f169d5/vx5RqPR+1vvuiK6PZ/MDyZ8+/Zt9vf38/e//z2PHj16fxB+aH6rjvkDAAAAALg8 k8kkL1++zKNHj/L06dO8fv06Z2dnl/51hsNhBoNBnj59mu+//z7Pnz/PZDK59K/DxVz5K6Hnl+MP BoPs7+9nf38/P/74Y05OTv7tnwEAAAAALtd0Os2rV69ycHCQw8PDDAaDJLP7Ovf7/YXv4Ty/C8J4 PM5kMsn5+XnOz8/z7NmzXL9+PWtra9nZ2fFz4Fpy5SP0yclJDg8Pc3Bw8P4K6PPz87bHAgAAAIBP zvx2uT/99FOOj4/f//rKykp2d3dz586d3LlzJ1tbWxcO0dPpNG/fvs2LFy/y/PnzPH/+PMPhMEly fHycp0+f5u7du66EbtEnEaEfP36c/f39PHnyJG/fvm17JAAAAAD4JE2n0xwdHeXZs2fvf1Zbkqyu rubu3bv5/e9/ny+++CJ3795Nv9//1RA9v63uy5cvc3BwkJWVlQwGg/cR+vT0NM+fP8/R0ZEI3aIr f0/o4XCYZ8+e/eIdEAAAAACgHaPRKKenp7/4eW2rq6vZ3d3N3t5eNjc3LxSgk9ltPHq9Xm7cuJH7 9+/n7t27WV39+brbyWSS4XCY8/PzTCYTt+FtyZW/Eno0GuX4+DjHx8eZTCbvfxLmdDrNaDRy4AEA AADAb2g0GmU4HP6iy/X7/dy6det9RG5yT+her5eNjY2sr6/n6dOn/xShP7xX9HQ6bXy/aZZ35SP0 xsZG7t27l5OTkzx//jz9fj87Ozvvb0zu6mgAAAAA+G3944Wh8yua54+m5n/mX/3Z+W07XJDajisf odfX13Pv3r2MRqP3V0F/9tlnGQwGef36tQgNAAAAAB+BRQP0h3/+3xGg23PlI/TGxkb29vZy69at fPnll+n3+7l+/Xr29/ezv7/vBxUCAAAAABS68hF6bW0ta2tr2dnZ+cWvDwaDX9wfBgAAAACAy9dv ewAAAAAAAK4uERoAAAAAgDIiNAAAAAAAZdwUGQAAAABo1Xg8zsuXL/P48eP0+/30+4tdO/vixYuM RqNLno5lidAAAAAAQKtOT0/zt7/9LT/88EN6vV56vd5Cn+fNmzc5Pj6+5OlYlggNAAAAALRqNBrl 8PAwh4eHbY9CAfeEBgAAAACgjAgNAAAAAEAZERoAAAAAgDLuCQ0AAAAAtGp1dTW7u7vZ2tpa+IcS JrMfTPjixYsMh8NLnI5lidAAAAAAQKs2Njbypz/9KX/84x+zsrKycIj+n//5n/z5z38WoT8yIjQA AAAA0KqVlZXcvn079+/fz8rKSvr9xe4i/PLly6yuSp4fG/eEBgAAAACgjAgNAAAAAEAZERoAAAAA gDIiNAAAAAAAZURoAAAAAADKiNAAAAAAAJQRoQEAAAAAKCNCAwAAAABQRoQGAAAAAKDMatsDVDs7 O8tgMMhgMMjR0VGGw2GS5MmTJzk5Ofmn3394eJi//OUv2djYSL/fz82bN7O1tZXt7e1sb2+n1+v9 1n8FAAAAAIDOuvIR+vT0NI8fP87+/n4ODg5ydHSU6XSa8Xic0Wj0T7//yZMnOTw8TL/fT7/fz/37 9/P555/nyy+/zPb2dgt/AwAAAACA7vokIvTTp0/z008/5ejoKKenp5lOp//y94/H44zH4/R6vfR6 vbx48SJJcuvWrXzxxReuhAYAAACAJc0b2z92umXb27zp9Xq9X3zu+a/Rjisfoc/OzvL06dMcHh5m NBr92wD9oel0mul0mqOjo5ycnOThw4cX/rMAAAAAwP9fr9dLv9/PZDJ5/7//8bGMfr//iwh9mZ+b xVz5CL22tpY7d+7kzZs3efXqVc7Ozi4Uk+cH5ObmZnZ2dtwPGgAAAACW1Ov1cvv27ezt7WUwGOT4 +DhbW1u5d+9ebt68uXR/u3HjRj777LNMp9MMBoOsra1la2srOzs7WV1d1fdacuUj9MbGRu7du5fj 4+OcnJy8/8GEFwnR/X4/29vbefDgQW7dulU9KgAAAABcaf1+Pzs7O/n888/z6NGjjEaj3L17N3t7 e7l582b6/f5Sn//GjRvZ29vLaDTK6elptra28uDBg+zu7orQLfokIvT9+/dz/fr17O3tZTgcvr/V xr8zvzx/a2srt27dys7OjoMUAAAAAJbQ6/Vy586drKys5O7duzk5Ocn29na2t7dz8+bNpT//5uZm Hj58mK2trTx8+DDr6+vvr4ReWVm5hL8Bi/hkIvT9+/fbHgUAAAAAPmn9fj+7u7vZ3d0t+fybm5vZ 3NzMgwcPSj4/i1nu+nYAAAAAAPg3RGgAAAAAAMqI0AAAAAAAlBGhAQAAAAAoI0IDAAAAAFBGhAYA AAAAoIwIDQAAAABAGREaAAAAAIAyIjQAAAAAAGVEaAAAAAAAyojQAAAAAACUEaEBAAAAACgjQgMA AAAAUEaEBgAAAACgjAgNAAAAAECZ1d/yi3377be/5ZcDoKM8XwCfCvsdAPCxcp7CZXIlNAAAAAAA ZURoAAAAAADKiNAAAAAAAJQRoQEAAAAAKCNCAwAAAABQZrXtAQCurFGSYdtDdMwkybjtIYDGxrHf LcJ+B90zjnO8RYzaHuAKcNw1N4rv2WVM2h6Aq0aEBqhyHP/eZBEnbQ8ANHaS5FXbQ3SQ/Q665ySz MHOt7UE65rTtAa6ANxHzmzpPcpZZgBZUoXW/aYT+7rvvfssvd/V82fYAHTTM7ElnJcmNlmfpmlFm J9n9JJstz9I1kyRvM1s7EbqZaZJe8t3/+S7ZanuYDjp6919r15y1W9xRkl7sd4uY73c3Zx/TwPx7 djOOvabeZnaucj0uSWrqOD/vd467Zuxxy3PcNdf74GHtmpvqeFwupx1dspVkve0hOuY4s3eM15Lc bnmWrjnL7Il6Ncluy7N0zfwKhX6Su20O0kGTzEJ0Yu0WMb/Cw9o1Z+0WZ+0WN1+7O/HiuKnpu8du vKJpqp/ZucrtzM6RubhXmV3kspVZxOfijn79t/Artt89uLiTzI49PaC5cWY9BS6R010AAAAAAMqI 0AAAAAAAlBGhAQAAAAAoI0IDAAAAAFBGhAYAAAAAoIwIDQAAAABAGREaAAAAAIAyIjQAAAAAAGVE aAAAAAAAyojQAAAAAACUEaEBAAAAACgjQgMAAAAAUEaEBgAAAACgjAgNAAAAAEAZERoAAAAAgDIi NAAAAAAAZURoAAAAAADKiNAAAAAAAJQRoQEAAAAAKCNCAwAAAABQRoQGAAAAAKCMCA0AAAAAQBkR GgAAAACAMiI0AAAAAABlRGgAAAAAAMqI0AAAAAAAlBGhAQAAAAAoI0IDAAAAAFBGhAYAAAAAoIwI DQAAAABAGREaAAAAAIAyIjQAAAAAAGVEaAAAAAAAyojQAAAAAACUEaEBAAAAACgjQgMAAAAAUEaE BgAAAACgjAgNAAAAAEAZERoAAAAAgDIiNAAAAAAAZURoAAAAAADKiNAAAAAAAJQRoQEAAAAAKCNC AwAAAABQRoQGAAAAAKCMCA0AAAAAQBkRGgAAAACAMiI0AAAAAABlRGgAAAAAAMqI0AAAAAAAlBGh AQAAAAAoI0IDAAAAAFBGhAYAAAAAoIwIDQAAAABAGREaAAAAAIAyIjQAAAAAAGVEaAAAAAAAyojQ AAAAAACUEaEBAAAAACgjQgMAAAAAUEaEBgAAAACgjAgNAAAAAEAZERoAAAAAgDIiNAAAAAAAZURo AAAAAADKiNAAAAAAAJQRoQEAAAAAKCNCAwAAAABQRoQGAAAAAKDMatsDAB+3r//z67ZHAAAAAKDD XAkNAAAAAEAZERoAAAAAgDIiNAAAAAAAZURoAAAAAADKiNAAAAAAAJRZbXsAGpgmmbQ9RMfM12z+ 4OKsGQAAwMfB67PmJtEDFjV994BLJEJ3yaDtATpo+O5xlmTU8ixdM0py2vYQAAAAZJDZa1su7jyz FqAHwEdBhO6SXtsDdFDvX3zMr7NeAAAAHw+v0ZrRA5bjSmgumQjdJdtJ1tseomOOk7xJspbkdsuz dM1ZktdtDwEAAEBuZ9YEuLiTJEfRAxYxznTupMwAABk9SURBVKynwCXygwkBAAAAACgjQgMAAAAA UEaEBgAAAACgjAgNAAAAAEAZERoAAAAAgDIiNAAAAAAAZURoAAAAAADKiNAAAAAAAJQRoQEAAAAA KCNCAwAAAABQRoQGAAAAAKCMCA0AAAAAQBkRGgAAAACAMiI0AAAAAABlRGgAAAAAAMqI0AAAAAAA lBGhAQAAAAAoI0IDAAAAAFBGhAYAAAAAoIwIDQAAAABAGREaAAAAAIAyIjQAAAAAAGVEaAAAAAAA yojQAAAAAACUEaEBAAAAACgjQgMAAAAAUEaEBgAAAACgjAgNAAAAAEAZERoAAAAAgDIiNAAAAAAA ZURoAAAAAADKiNAAAAAAAJQRoQEAAAAAKCNCAwAAAABQRoQGAAAAAKCMCA0AAAAAQBkRGgAAAACA MiI0AAAAAABlRGgAAAAAAMqI0AAAAAAAlBGhAQAAAAAoI0IDAAAAAFBGhAYAAAAAoIwIDQAAAABA GREa+H/t3E1uHWd6huGHEkVZFi2pFcOz7IULCYLAGyG0kR5lIeQWjPQKMo5g2aR+KP5kUIeQugc2 q6jHnz77uoACOfDgxetSnaqbRQIAAABAjQgNAAAAAECNCA0AAAAAQI0IDQAAAABAjQgNAAAAAECN CA0AAAAAQI0IDQAAAABAjQgNAAAAAECNCA0AAAAAQI0IDQAAAABAjQgNAAAAAECNCA0AAAAAQI0I DQAAAABAjQgNAAAAAECNCA0AAAAAQI0IDQAAAABAjQgNAAAAAECNCA0AAAAAQI0IDQAAAABAjQgN AAAAAECNCA0AAAAAQI0IDQAAAABAjQgNAAAAAECNCA0AAAAAQI0IDQAAAABAzf7oAeCPcPwfx6NH mNbJycnoEQAAAACYmDehAQAAAACoEaEBAAAAAKgRoQEAAAAAqBGhAQAAAACoEaEBAAAAAKgRoQEA AAAAqNkfPQArvBk9wIQudgcAAADM6uck70cPMZmPST4keRhdAL4CIjTwm07/5zT5dvQUk7lO8nb3 /eHIQSZ1tvtqd+vZ3XZ2t53dbXe7u6dJ9kYOMqHb3T3JEhe4u/MkN7G7Ld4luUryOMmjwbPM5n2S yyQHu4O7u32xSr0BJucyNpPnWW54uLu3+fSQwjbPkrwcPcRkLpO8zvIHj74fPMtsrj/7/odhU8zP 7razu+3sbrvv44/krbWXJaS+jCeatV5nuVd5ETFwrZ+zxMDvskR87u7XLBH/6e7g7s53xzdZns24 u3dZzr2DLNc87u4qn16sgi/E7S4AAAAAADUiNAAAAAAANSI0AAAAAAA1IjQAAAAAADUiNAAAAAAA NSI0AAAAAAA1IjQAAAAAADUiNAAAAAAANSI0AAAAAAA1IjQAAAAAADUiNAAAAAAANSI0AAAAAAA1 IjQAAAAAADUiNAAAAAAANSI0AAAAAAA1IjQAAAAAADUiNAAAAAAANSI0AAAAAAA1IjQAAAAAADUi NAAAAAAANSI0AAAAAAA1IjQAAAAAADUiNAAAAAAANSI0AAAAAAA1IjQAAAAAADUiNAAAAAAANSI0 AAAAAAA1IjQAAAAAADUiNAAAAAAANSI0AAAAAAA1IjQAAAAAADUiNAAAAAAANSI0AAAAAAA1IjQA AAAAADUiNAAAAAAANSI0AAAAAAA1IjQAAAAAADUiNAAAAAAANSI0AAAAAAA1IjQAAAAAADUiNAAA AAAANSI0AAAAAAA1IjQAAAAAADUiNAAAAAAANSI0AAAAAAA1IjQAAAAAADUiNAAAAAAANSI0AAAA AAA1IjQAAAAAADUiNAAAAAAANSI0AAAAAAA1IjQAAAAAADUiNAAAAAAANSI0AAAAAAA1IjQAAAAA ADUiNAAAAAAANSI0AAAAAAA1IjQAAAAAADUiNAAAAAAANSI0AAAAAAA1IjQAAAAAADUiNAAAAAAA NSI0AAAAAAA1IjQAAAAAADUiNAAAAAAANSI0AAAAAAA1IjQAAAAAADUiNAAAAAAANSI0AAAAAAA1 +6MHAIB/dfzj8egRpvXq769GjwCs4Hq3nesdAMA8vAkNAAAAAECNCA0AAAAAQI0IDQAAAABAjQgN AAAAAECNCA0AAAAAQI0IDQAAAABAzf7oAVjhzegBJnSxO9julySXo4eYzHWSt599zzpnoweYnP1t Y2/b2d12dnc/Z0mukjwcPchkzpPcxO62eJdlbx+TPBo8y2zeZ3mmuMhyDnJ3t8+073cHd/cxyYcs 1zpdAIbzJjQAAAAAADXehJ7J8ySPRw8xmbfxltF9PUvycvQQk7lM8jrLj/m+HzzLbLw5fn+HSX4Y PcTE7G47u+OPdpjlHsUTzTqvs9yrvEhyMHiW2fyc5W3K75I8GTzLbH7N8ib5093B3Z3vjm+yPJtx d++ynHsHWa553N1VPv12L3wh3oQGAAAAAKBGhAYAAAAAoEaEBgAAAACgRoQGAAAAAKBGhAYAAAAA oEaEBgAAAACgRoQGAAAAAKBGhAYAAAAAoEaEBgAAAACgRoQGAAAAAKBGhAYAAAAAoEaEBgAAAACg RoQGAAAAAKBGhAYAAAAAoEaEBgAAAACgRoQGAAAAAKBGhAYAAAAAoEaEBgAAAACgRoQGAAAAAKBG hAYAAAAAoEaEBgAAAACgRoQGAAAAAKBGhAYAAAAAoEaEBgAAAACgRoQGAAAAAKBGhAYAAAAAoEaE BgAAAACgRoQGAAAAAKBGhAYAAAAAoEaEBgAAAACgRoQGAAAAAKBGhAYAAAAAoEaEBgAAAACgRoQG AAAAAKBGhAYAAAAAoEaEBgAAAACgRoQGAAAAAKBGhAYAAAAAoEaEBgAAAACgRoQGAAAAAKBGhAYA AAAAoEaEBgAAAACgRoQGAAAAAKBGhAYAAAAAoEaEBgAAAACgRoQGAAAAAKBGhAYAAAAAoEaEBgAA AACgRoQGAAAAAKBGhAYAAAAAoEaEBgAAAACgRoQGAAAAAKBGhAYAAAAAoEaEBgAAAACgRoQGAAAA AKBGhAYAAAAAoEaEBgAAAACgRoQGAAAAAKBGhAYAAAAAoEaEBgAAAACgRoQGAAAAAKBGhAYAAAAA oEaEBgAAAACgRoQGAAAAAKBGhAYAAAAAoEaEBgAAAACgRoQGAAAAAKBGhAYAAAAAoEaEBgAAAACg Zn/0AAB/Vsf/dTx6hGmdnJyMHmFaxz8677Z69fdXo0eYlvNuO9e77Zx327nebee8g/m8+m/XPPga eBMaAAAAAIAaERoAAAAAgBoRGgAAAACAGhEaAAAAAIAaERoAAAAAgBoRGgAAAACAmv3RA7DCm9ED TOhid7DdL0kuRw8xmeskb0cPAax2NnqASdkbzOcsyVWSh6MHmcy70QMAm7yJLgBfAREagK/O6U+n yeHoKSZ0lhwdHY2eAljh9KfT5GmSvdGTTMb1DgBgKiL0TJ4neTx6iMm8jTe07utZkpejh5jMZZLX o4eY3GGSH0YPwV+O844RDpN8H38kby3R/n4Ok7xIcjB6kMn8PHoAYJPnWa553N1V/HYvX5zbXQAA AAAAakRoAAAAAABqRGgAAAAAAGpEaAAAAAAAakRoAAAAAABqRGgAAAAAAGpEaAAAAAAAakRoAAAA AABqRGgAAAAAAGpEaAAAAAAAakRoAAAAAABqRGgAAAAAAGpEaAAAAAAAakRoAAAAAABqRGgAAAAA AGpEaAAAAAAAakRoAAAAAABqRGgAAAAAAGpEaAAAAAAAakRoAAAAAABqRGgAAAAAAGpEaAAAAAAA akRoAAAAAABqRGgAAAAAAGpEaAAAAAAAakRoAAAAAABqRGgAAAAAAGpEaAAAAAAAakRoAAAAAABq RGgAAAAAAGpEaAAAAAAAakRoAAAAAABqRGgAAAAAAGpEaAAAAAAAakRoAAAAAABqRGgAAAAAAGpE aAAAAAAAakRoAAAAAABqRGgAAAAAAGpEaAAAAAAAakRoAAAAAABqRGgAAAAAAGpEaAAAAAAAakRo AAAAAABqRGgAAAAAAGpEaAAAAAAAakRoAAAAAABqRGgAAAAAAGpEaAAAAAAAakRoAAAAAABqRGgA AAAAAGpEaAAAAAAAakRoAAAAAABqRGgAAAAAAGpEaAAAAAAAakRoAAAAAABqRGgAAAAAAGpEaAAA AAAAakRoAAAAAABqRGgAAAAAAGpEaAAAAAAAakRoAAAAAABqRGgAAAAAAGpEaAAAAAAAakRoAAAA AABqRGgAAAAAAGpEaAAAAAAAakRoAAAAAABqRGgAAAAAAGr2Rw8AAADAH+f4x+PRI/AXdHJyMnqE qR0dHY0eAeBevAkNAAAAAECNCA0AAAAAQI0IDQAAAABAjQgNAAAAAECNCA0AAAAAQI0IDQAAAABA zf7oAVjhzegBJnSxO9julySXo4eYzHWSt6OHmNzZ6AEmZW/3Y3/b2Nv9nCW5SbI3epDJOO8AuKs3 0QXgKyBCAwAAAFWnP50mB1kO7m73YtXR0dHoSQDuRYSeyfMkj0cPMZm38abMfT1L8nL0EJO5TPJ6 9BCTO0zyw+gh+Mtx3jHCYZLv44/kreXNcZjPYZKnu4O7O98dbPc8yYvRQ0zmKn67ly/O7S4AAAAA ADUiNAAAAAAANSI0AAAAAAA1IjQAAAAAADUiNAAAAAAANSI0AAAAAAA1IjQAAAAAADUiNAAAAAAA NSI0AAAAAAA1IjQAAAAAADUiNAAAAAAANSI0AAAAAAA1IjQAAAAAADUiNAAAAAAANSI0AAAAAAA1 IjQAAAAAADUiNAAAAAAANSI0AAAAAAA1IjQAAAAAADUiNAAAAAAANSI0AAAAAAA1IjQAAAAAADUi NAAAAAAANSI0AAAAAAA1IjQAAAAAADUiNAAAAAAANSI0AAAAAAA1IjQAAAAAADUiNAAAAAAANSI0 AAAAAAA1IjQAAAAAADUiNAAAAAAANSI0AAAAAAA1IjQAAAAAADUiNAAAAAAANSI0AAAAAAA1IjQA AAAAADUiNAAAAAAANSI0AAAAAAA1IjQAAAAAADUiNAAAAAAANSI0AAAAAAA1IjQAAAAAADUiNAAA AAAANSI0AAAAAAA1IjQAAAAAADUiNAAAAAAANSI0AAAAAAA1IjQAAAAAADUiNAAAAAAANSI0AAAA AAA1IjQAAAAAADUiNAAAAAAANSI0AAAAAAA1IjQAAAAAADUiNAAAAAAANSI0AAAAAAA1IjQAAAAA ADUiNAAAAAAANSI0AAAAAAA1IjQAAAAAADUiNAAAAAAANSI0AAAAAAA1IjQAAAAAADUiNAAAAAAA NSI0AAAAAAA1IjQAAAAAADUiNAAAAAAANSI0AAAAAAA1+6MHgD/CycnJ6BGmdfyfx6NHmJbzjhGc d9sd/+h6t5XzjhGcd4xwdHQ0eoRp+ZwF+GvzJjQAAAAAADUiNAAAAAAANSI0AAAAAAA1IjQAAAAA ADUiNAAAAAAANSI0AAAAAAA1+6MHYIVfRg8woYskH0YPAax2lmRv9BATOhs9ALDaWZKbeDVkLdc7 AO7qlyQfRw8xoZvRA/BnI0LPxAVgvd3OTv9xmjwZO8p0LpO8T46OjkZPMq3Tn06Tw9FTTOg2LLjm beK82+jM9e4+nHcbfR5SXfPWudmdd0+SPBw9zGTOs5xvdrfeO58VMKWb+JyFr4AIPZPvkhyMHmIy 77I84B0keT54ltlcJHkzeojJHSb5t9FDTOZ6dyR2t4XdbXf9+/8Jv+HbOO+2+PzfrN/+WO86yd/i iWatvSRXWe6NPVus494Y5nSY5MXoISZznaWnwBfklm0mD+JthbUefHbY3Tq3e2M75916e/l03tnd ena3nevd/bjebfPgs6/OwXVuPy8exrm31sMsbwTa3Xr+ncKcXO+28QNyvjAfowAAAAAA1IjQAAAA AADUiNAAAAAAANSI0AAAAAAA1IjQAAAAAADUiNAAAAAAANSI0AAAAAAA1IjQAAAAAADUiNAAAAAA ANSI0AAAAAAA1IjQAAAAAADUiNAAAAAAANSI0AAAAAAA1IjQAAAAAADUiNAAAAAAANSI0AAAAAAA 1IjQAAAAAADUiNAAAAAAANSI0AAAAAAA1IjQAAAAAADUiNAAAAAAANSI0AAAAAAA1IjQAAAAAADU iNAAAAAAANSI0AAAAAAA1IjQAAAAAADUiNAAAAAAANSI0AAAAAAA1IjQAAAAAADUiNAAAAAAANSI 0AAAAAAA1IjQAAAAAADUiNAAAAAAANSI0AAAAAAA1IjQAAAAAADUiNAAAAAAANSI0AAAAAAA1IjQ AAAAAADUiNAAAAAAANSI0AAAAAAA1IjQAAAAAADUiNAAAAAAANSI0AAAAAAA1IjQAAAAAADUiNAA AAAAANSI0AAAAAAA1IjQAAAAAADUiNAAAAAAANSI0AAAAAAA1IjQAAAAAADUiNAAAAAAANSI0AAA AAAA1IjQAAAAAADUiNAAAAAAANSI0AAAAAAA1IjQAAAAAADUiNAAAAAAANSI0AAAAAAA1IjQAAAA AADUiNAAAAAAANSI0AAAAAAA1IjQAAAAAADUiNAAAAAAANSI0AAAAAAA1IjQAAAAAADUiNAAAAAA ANSI0AAAAAAA1IjQAAAAAADU7I8eAPi6nZycjB4B4A/hegfA7/FZAQDbeBMaAAAAAIAaERoAAAAA gBoRGgAAAACAGhEaAAAAAIAaERoAAAAAgBoRGgAAAACAmv3RA7DC2e7g7i6SvE/yIcnV4Flmc5nk 7eghJneeZG/0EJO5zrK3JPm/kYNMyu62O//9/4TfcB7n3Ra3592D+LxY6zzJze77hyMHmdB5lvvi m3gaXMtnBczp1+gBW1yPHoA/m718un3ja/fvoweY0MXueJjkyeBZZnOZJeA/SPLt4Flmc51PAf9w 5CCTuv1hm92tZ3fb2d12drfd7e6eRoRe63Z3TyJCr3Ub8O1uvXdZQtbjJI8GzzKb91meLw52B3d3 +0y7n+SbwbPM5mOWF9L0gO3+d/QA/Jn42fdMDuP/2Frvs9xoHyT5bvAss7nI8kC8n+T54Flmc5nl 4W4vyYvBs8zmOp/eUrC79exuO7vbzu62u93d8/gjeWtdZ/msfR73x1tcZbk3FgPXeZAlaj2NGLjW WZYY+CRecFnrbZYfgDyOH/iudftS1aMkzwbPMqN3owfgz8Yt20wexo3iWpdZ9mZ3693E7rZ6kGVv D2J3a13n01tZdree3W1nd9vZ3Xaf706EXudhlnuVg3iiWet2X95IXW8/y73Ko9jdWo+yPJvZ3Xof 8+lNaLtb5yrL54XdrXcV9yZ8cU4pAAAAAABqRGgAAAAAAGpEaAAAAAAAakRoAAAAAABqRGgAAAAA AGpEaAAAAAAAakRoAAAAAABqRGgAAAAAAGpEaAAAAAAAakRoAAAAAABqRGgAAAAAAGpEaAAAAAAA akRoAAAAAABqRGgAAAAAAGpEaAAAAAAAakRoAAAAAABqRGgAAAAAAGpEaAAAAAAAakRoAAAAAABq RGgAAAAAAGpEaAAAAAAAakRoAAAAAABqRGgAAAAAAGpEaAAAAAAAakRoAAAAAABqRGgAAAAAAGpE aAAAAAAAakRoAAAAAABqRGgAAAAAAGpEaAAAAAAAakRoAAAAAABqRGgAAAAAAGpEaAAAAAAAakRo AAAAAABqRGgAAAAAAGpEaAAAAAAAakRoAAAAAABqRGgAAAAAAGpEaAAAAAAAakRoAAAAAABqRGgA AAAAAGpEaAAAAAAAakRoAAAAAABqRGgAAAAAAGpEaAAAAAAAakRoAAAAAABqRGgAAAAAAGpEaAAA AAAAakRoAAAAAABqRGgAAAAAAGpEaAAAAAAAakRoAAAAAABqRGgAAAAAAGpEaAAAAAAAakRoAAAA AABqRGgAAAAAAGpEaAAAAAAAakRoAAAAAABqRGgAAAAAAGpEaAAAAAAAakRoAAAAAABqRGgAAAAA AGpEaAAAAAAAakRoAAAAAABqRGgAAAAAAGpEaAAAAAAAakRoAAAAAABqRGgAAAAAAGpEaAAAAAAA akRoAAAAAABqRGgAAAAAAGpEaAAAAAAAakRoAAAAAABqRGgAAAAAAGpEaAAAAAAAavZHD8AK10ne jR5iMle7rzexu7WuPvve7ta5/ux7u1vn5rPv7W47u9vO7razu+3eJ9kbPcSkPiT5OHqISV3kn+/3 uLvLuOatdXt/fBW7W+v236kesN7l7qseAF+FvfzzIz8AAAAAAHwx/hwHAAAAAAA1IjQAAAAAADUi NAAAAAAANSI0AAAAAAA1IjQAAAAAADUiNAAAAAAANSI0AAAAAAA1IjQAAAAAADUiNAAAAAAANSI0 AAAAAAA1IjQAAAAAADUiNAAAAAAANSI0AAAAAAA1IjQAAAAAADUiNAAAAAAANSI0AAAAAAA1IjQA AAAAADUiNAAAAAAANSI0AAAAAAA1IjQAAAAAADUiNAAAAAAANSI0AAAAAAA1IjQAAAAAADUiNAAA AAAANSI0AAAAAAA1IjQAAAAAADUiNAAAAAAANSI0AAAAAAA1IjQAAAAAADUiNAAAAAAANSI0AAAA AAA1IjQAAAAAADUiNAAAAAAANSI0AAAAAAA1IjQAAAAAADUiNAAAAAAANSI0AAAAAAA1/w8g+n8f zjZUqQAAAABJRU5ErkJggg== "
       id="image3935"
       x="-67.361641"
       y="45.152145"
       transform="rotate(-8.722283)" /><image
       width="662.9342"
       height="520.90991"
       preserveAspectRatio="none"
       xlink:href="data:image/png;base64,iVBORw0KGgoAAAANSUhEUgAABZkAAARmCAYAAABdgLsnAAAgAElEQVR4nOzd206cV7rv4X8VmJ3B 4G3sKO5I3dI663vgOpZWS1O5Ecs30prSlNZ1mEvoXprzoA9anThxgADGNpuCKqrWQYGzm93Tfo0z +PDzSKUgGxcvI7Xh+9Xgq16SSQAAAAAAoKDfegAAAAAAALpLZAYAAAAAoExkBgAAAACgTGQGAAAA AKBMZAYAAAAAoExkBgAAAACgTGQGAAAAAKBMZAYAAAAAoExkBgAAAACgTGQGAAAAAKBMZAYAAAAA oExkBgAAAACgTGQGAAAAAKBMZAYAAAAAoExkBgAAAACgTGQGAAAAAKBMZAYAAAAAoExkBgAAAACg TGQGAAAAAKBMZAYAAAAAoExkBgAAAACgTGQGAAAAAKBMZAYAAAAAoExkBgAAAACgTGQGAAAAAKBM ZAYAAAAAoExkBgAAAACgTGQGAAAAAKBMZAYAAAAAoExkBgAAAACgTGQGAAAAAKBMZAYAAAAAoExk BgAAAACgTGQGAAAAAKBMZAYAAAAAoExkBgAAAACgTGQGAAAAAKBMZAYAAAAAoExkBgAAAACgTGQG AAAAAKBMZAYAAAAAoExkBgAAAACgTGQGAAAAAKBMZAYAAAAAoExkBgAAAACgbLb1ANfC/2o9QMcd n/93sekU3TVJMjj/2BrWWMMPN05ycv6xNaw5S3KapJdkofEsXXWxhv0k841n6apRkmGSmSRzjWfp Kmv44YaZrqM1rDvN9DFxNsmNxrN01cUa3oij5qqTTH9GnMv0/sz7G2R6rGIN6y7WcD62WX6Iv7Ue gC7wdHlZVloP0GEXkdka1ozzYyC1hjWjWMMPNcz0QKIXa1h1mh8jszWsGeTHyGwNa44yvT9bw7rD /BiZrWHNm0yfm2/EGla9zo+B1BrW7Ge6hnNJbjaepatG+TEyLzWepasuXnRbiE0IVSeZRubFeOGy 6qD1AHSF13EAAAAAACgTmQEAAAAAKBOZAQAAAAAoE5kBAAAAACgTmQEAAAAAKBOZAQAAAAAoE5kB AAAAACgTmQEAAAAAKBOZAQAAAAAoE5kBAAAAACgTmQEAAAAAKBOZAQAAAAAoE5kBAAAAACgTmQEA AAAAKBOZAQAAAAAoE5kBAAAAACgTmQEAAAAAKBOZAQAAAAAoE5kBAAAAACgTmQEAAAAAKBOZAQAA AAAoE5kBAAAAACgTmQEAAAAAKBOZAQAAAAAoE5kBAAAAACgTmQEAAAAAKBOZAQAAAAAoE5kBAAAA ACgTmQEAAAAAKBOZAQAAAAAoE5kBAAAAACgTmQEAAAAAKBOZAQAAAAAoE5kBAAAAACgTmQEAAAAA KBOZAQAAAAAoE5kBAAAAACgTmQEAAAAAKBOZAQAAAAAoE5kBAAAAACgTmQEAAAAAKBOZAQAAAAAo E5kBAAAAACgTmQEAAAAAKBOZAQAAAAAoE5kBAAAAACgTmQEAAAAAKBOZAQAAAAAoE5kBAAAAACgT mQEAAAAAKBOZAQAAAAAoE5kBAAAAACgTmQEAAAAAKBOZAQAAAAAoE5kBAAAAACgTmQEAAAAAKBOZ AQAAAAAoE5kBAAAAACgTmQEAAAAAKBOZAQAAAAAoE5kBAAAAACgTmQEAAAAAKBOZAQAAAAAoE5kB AAAAACgTmQEAAAAAKBOZAQAAAAAoE5kBAAAAACgTmQEAAAAAKBOZAQAAAAAoE5kBAAAAACgTmQEA AAAAKJttPQAkyZOvnrQeAeBKePrvT1uPAHnyJ8/LtPf0/3o8pC3HKB/u6Z/djwE+FXYyAwAAAABQ JjIDAAAAAFAmMgMAAAAAUCYyAwAAAABQJjIDAAAAAFAmMgMAAAAAUDbbeoBr4fj8Qs1B6wEArpDX Scath+ioUZJBpi+hjxrP0lWn5xe4CvYzvU/z/gaZPg6exHFKlXW7HAeZPq845qs5TDJJMkxyo/Es XXWxhmdJZhrPAtecncwAAAAAAJTZyXwZFpOstB4CgGvhVpJ7rYfoqEGmO8Fnk9xpPEtXHcVuM66O tUwfE3l/rzN9THScUrffeoBrYvn8stR6kI7ay/S3Em4lWWg8S1ftZPpbgmtJ5hrP0lV+NuQd2ckM AAAAAECZyAwAAAAAQJnIDAAAAABAmcgMAAAAAECZyAwAAAAAQJnIDAAAAABAmcgMAAAAAECZyAwA AAAAQJnIDAAAAABAmcgMAAAAAECZyAwAAAAAQJnIDAAAAABAmcgMAAAAAECZyAwAAAAAQJnIDAAA AABAmcgMAAAAAECZyAwAAAAAQJnIDAAAAABAmcgMAAAAAECZyAwAAAAAQJnIDAAAAABAmcgMAAAA AECZyAwAAAAAQJnIDAAAAABAmcgMAAAAAECZyAwAAAAAQJnIDAAAAABAmcgMAAAAAECZyAwAAAAA QJnIDAAAAABAmcgMAAAAAECZyAwAAAAAQJnIDAAAAABAmcgMAAAAAECZyAwAAAAAQJnIDAAAAABA mcgMAAAAAECZyAwAAAAAQJnIDAAAAABAmcgMAAAAAECZyAwAAAAAQJnIDAAAAABAmcgMAAAAAECZ yAwAAAAAQJnIDAAAAABAmcgMAAAAAECZyAwAAAAAQJnIDAAAAABAmcgMAAAAAECZyAwAAAAAQJnI DAAAAABAmcgMAAAAAECZyAwAAAAAQJnIDAAAAABAmcgMAAAAAECZyAwAAAAAQJnIDAAAAABAmcgM AAAAAECZyAwAAAAAQJnIDAAAAABAmcgMAAAAAECZyAwAAAAAQJnIDAAAAABAmcgMAAAAAECZyAwA AAAAQJnIDAAAAABAmcgMAAAAAECZyAwAAAAAQJnIDAAAAABAmcgMAAAAAECZyAwAAAAAQNls6wGA y/Hs2bPWI0DW19dbj9B5T/7tSesRwHMKV8KT/+3x8EM8/fPT1iNAnnzlfvyh3JeBrrCTGQAAAACA MpEZAAAAAIAykRkAAAAAgDKRGQAAAACAMpEZAAAAAIAykRkAAAAAgLLZ1gNcC8fnF2oOWg8AAADX zEGSkzhOqbJuXBUHSYZJbrQepKMOk0ySnCWZaTwLXHMiM1wTG3/dSJZbT9FR4yRH5x9bw5rzNVxf X289CXAJNv5zI1lsPUVHnZ5fZmINq06SDD2nAAB0ich8GRaTrLQegk/ecpIHrYfoqFGSvfOPrWHN ME7ABNfJrSS3Ww/RUYfnl7kka41n6ao3sYv0MizHccqH2G89AJxbzvR5eaH1IB21k+mGmLVMn5t5 f377nHckCQAAAAAAUCYyAwAAAABQJjIDAAAAAFAmMgMAAAAAUCYyAwAAAABQJjIDAAAAAFAmMgMA AAAAUCYyAwAAAABQJjIDAAAAAFAmMgMAAAAAUCYyAwAAAABQJjIDAAAAAFAmMgMAAAAAUCYyAwAA AABQJjIDAAAAAFAmMgMAAAAAUCYyAwAAAABQJjIDAAAAAFAmMgMAAAAAUCYyAwAAAABQJjIDAAAA AFAmMgMAAAAAUCYyAwAAAABQJjIDAAAAAFAmMgMAAAAAUCYyAwAAAABQJjIDAAAAAFAmMgMAAAAA UCYyAwAAAABQJjIDAAAAAFAmMgMAAAAAUCYyAwAAAABQJjIDAAAAAFAmMgMAAAAAUCYyAwAAAABQ JjIDAAAAAFAmMgMAAAAAUCYyAwAAAABQJjIDAAAAAFAmMgMAAAAAUCYyAwAAAABQJjIDAAAAAFAm MgMAAAAAUCYyAwAAAABQJjIDAAAAAFAmMgMAAAAAUCYyAwAAAABQJjIDAAAAAFAmMgMAAAAAUCYy AwAAAABQJjIDAAAAAFAmMgMAAAAAUCYyAwAAAABQJjIDAAAAAFAmMgMAAAAAUCYyAwAAAABQJjID AAAAAFAmMgMAAAAAUCYyAwAAAABQJjIDAAAAAFAmMgMAAAAAUCYyAwAAAABQJjIDAAAAAFAmMgMA AAAAUCYyAwAAAABQJjIDAAAAAFAmMgMAAAAAUCYyAwAAAABQJjIDAAAAAFAmMgMAAAAAUCYyAwAA AABQNtt6AADgR8+ePWs9AuTJn560HgE8HsI14H4M8OmwkxkAAAAAgDKRGQAAAACAMpEZAAAAAIAy kRkAAAAAgDKRGQAAAACAMpEZAAAAAICy2dYDXAvH5xdqDloPcE1Yx7pxkqPWQ3ScNQSAq+UgyUkc p1RZN66KgyTDJDdaD9JRh0kmSc6SzDSeBa45kRkArpCNv24ky62n6KhRkkGmv6e11HiWrjqdXtbX 11tPAtn4r41kofUUHTVoPQBMbfx1I5nL9ML7O2w9AMC7E5kvw2KSldZD8MlbTvKg9RAdNUqyd/6x NawZxgmYLsutJPdaD9FRgySvM/3p5k7jWbrqKH4zhqtjLdPHRN7f60wfEx2n1O23HuCaWD6/ePG3 Zi/TY5Vb8aJb1U6mv3W5Fi92VPnZkHckCQAAAAAAUCYyAwAAAABQJjIDAAAAAFAmMgMAAAAAUCYy AwAAAABQJjIDAAAAAFAmMgMAAAAAUCYyAwAAAABQJjIDAAAAAFAmMgMAAAAAUCYyAwAAAABQJjID AAAAAFAmMgMAAAAAUCYyAwAAAABQJjIDAAAAAFAmMgMAAAAAUCYyAwAAAABQJjIDAAAAAFAmMgMA AAAAUCYyAwAAAABQJjIDAAAAAFAmMgMAAAAAUCYyAwAAAABQJjIDAAAAAFAmMgMAAAAAUCYyAwAA AABQJjIDAAAAAFAmMgMAAAAAUCYyAwAAAABQJjIDAAAAAFAmMgMAAAAAUCYyAwAAAABQJjIDAAAA AFAmMgMAAAAAUCYyAwAAAABQJjIDAAAAAFAmMgMAAAAAUCYyAwAAAABQJjIDAAAAAFAmMgMAAAAA UCYyAwAAAABQJjIDAAAAAFAmMgMAAAAAUCYyAwAAAABQJjIDAAAAAFAmMgMAAAAAUCYyAwAAAABQ JjIDAAAAAFAmMgMAAAAAUCYyAwAAAABQJjIDAAAAAFAmMgMAAAAAUCYyAwAAAABQJjIDAAAAAFAm MgMAAAAAUCYyAwAAAABQJjIDAAAAAFAmMgMAAAAAUCYyAwAAAABQJjIDAAAAAFAmMgMAAAAAUCYy AwAAAABQJjIDAAAAAFAmMgMAAAAAUCYyAwAAAABQJjIDAAAAAFAmMgMAAAAAUCYyAwAAAABQJjID AAAAAFAmMgMAAAAAUCYyAwAAAABQNvvkyZPWMwAAcIU8e/as9QgAXANPvtIbPtTTPz9tPULnuR1y FTx9ev3vy3YyAwAAAABQJjIDAAAAAFAmMgMAAAAAUCYyAwAAAABQJjIDAAAAAFA223oA4JJMkoxb D9FR40zX7+Jj3t9P15AP475cd3E7HMcaVrkvc5W4L9d5PPxw1o2rwn35w/i5Bn4zIjNcF4dJeq2H 6KhxkqPzj61hzU/XkA/zJn4YrholGWT6e1oOxGpOzy9wFbyO22PVINPHxNMkJ41n6arj1gPAucNM 7883Wg/SUYetB4BPh8gMAMDPbPznRrLYeoqOugj1M7GGVSdJhnGkAgDQIX50g+tiOcmD1kN01CjJ 3vnH1rBmGGf5vyy3ktxrPURHDTLd+Tib5E7jWbrqKMlBprulbjeepasOzy9zSdYaz9JVbzLdRbqQ 6WMi7+91po+Ji0lWGs/SVfutB4Bzy5k+Fi60HqSjdloPAJ8OSQAAAAAAgDKRGQAAAACAMpEZAAAA AIAykRkAAAAAgDKRGQAAAACAMpEZAAAAAIAykRkAAAAAgDKRGQAAAACAMpEZAAAAAIAykRkAAAAA gDKRGQAAAACAstnWA/zUeDzO8fFxBoNBTk9PMxqNMj8/n/n5+SwuLmZubq71iAAAAADARzCZTHJy cpKTk5Ocnp7m9PQ04/E44/E4k8nkna+n1+ul3++n3+/nxo0bmZuby8LCQubn59Pr9T7id/DpulKR eTgcZnt7O5ubm9nd3c3R0VHu3buX+/fv5/PPP8/du3dbjwgAAAAAXLLJZJLJZJL9/f1sb29nb28v e3t7b2Pz+0bmubm5zM3N5fbt27lz504ePHiQBw8epN/vC80fwZWIzGdnZzk+Ps6rV6/y3Xff5fnz 59nd3c3x8XEODw9zenqaW7du5c6dO24EAAAAAHCNTCaTHBwc5M2bN3nx4kVevHjxq8h88Xnv4qeR +fXr13n9+nWGw2Emk0lWVlayvLysMV6yKxGZh8Nhtra28u233+b58+fZ3t7OyclJzs7OsrOzk8lk ksePH7+9IbkRAAAAAED3TSaTjMfjbG5u5u9//3t2dnays7Pzs9NlvM8u5ovrHA6HOTs7yw8//JBX r17l4OAgOzs7+cMf/pDf//73djRfsqaR+WIH8/7+fr777rt888032d3dzZs3b95+ztHRUebm5t7e qNwAAAAAAOB6GAwGOT4+ztbWVr7++uu3O5o/1MW5nEejUY6OjjIajXJ4eJjl5eXcuXMnS0tLWVxc vITvgKRxZL7Ywfz8+fN8++232draerv9/ZcuzssCAAAAAHTfZDLJq1evsrW1la2trbx8+TKj0eij fK3BYJCzs7Nsbm5maWkpjx49EpkvUZPIPB6Pf7aD+eIczIeHh//03wjMAAAAAHC9vH79Ot999132 9vYyGAze/vnCwkLm5+ezsLCQhYWFJO92Ct2LhjgYDHJycpLBYJDBYJDRaJSzs7Ps7e1lbm4uy8vL efTo0cf5pj5BTSLzcDjM9vb228D8r3YwAwAAAADX08HBQTY3N3NwcPD2z3q9XlZXV/PZZ5/ls88+ y8OHD9Pr9d45Mo/H42xvb2d7ezubm5vZ3Nx8+3cXp+L44osvPs439IlqEplHo1F2d3fz7bffZmdn 51/uYAYAAAAArqfBYJD9/f1fbUBdXV3N48eP8+jRozx8+PCd36ftIjIvLi5mYWEhx8fHbyNzkpyc nGQ8HmcwGGQymXjvt0vSJDKfnZ1lf38/W1tbOT4+bjECAAAAANDYaDR6e77kn7qIzDdv3nznwJxM d0H3+/2sra1lfn4+33///c/+/uzsLJPJJKPRKOPx+L2um3+u2Rv/XfwP7/V6mZmZyfz8fGZmZnJy cuLUGQAAAADwCTg7O8toNPrV+7EtLCxkdXU1s7Oz7x2Be71eFhcXMzc39/Z8zhfG4/Hb3c6TycRu 5kvSb/FFZ2dnc/v27Tx8+DArKyuZn5/PvXv38vnnn+fmzZstRgIAAAAAGvhlYE7y9hzM1QD80w2u /+xrXlz4cE12Ms/Ozubu3bsZjUZZWlrK4eFh7t+/nxs3buTw8DAvX75sMRYAAAAAcEV86A7j/+nf C8yXp1lkvn//flZWVvL48eOMRqPMz8/n+Pg4L168aDESAAAAAAAFTSJzv9/P0tJSlpaWfvbn+/v7 mZubazESAAAAAAAFTc7JDAAAAADA9SAyAwAAAABQJjIDAAAAAFDW5JzMAAAAAAD/zP7+fr755pv0 +/30+7V9spPJJK9evbrkyfjviMwAAAAAwJUxmUzy9ddfZ39/P71eL71er3w9IvNvQ2QGAAAAAK6U V69eCcQd4pzMAAAAAACUicwAAAAAAJSJzAAAAAAAlDknMwAAAABwpayurmZ1dfVS3vhvf3//kqfj l0RmAAAAAODK6PV6+fLLL/PHP/4x/X4//X7tZAyTySR/+ctfRObfgMgMAAAAAFwpa2tr+d3vfpeZ mZnMzMyUrmMymeQf//jH5Q7Gf8s5mQEAAAAAKBOZAQAAAAAoE5kBAAAAACgTmQEAAAAAKBOZAQAA AAAoE5kBAAAAACgTmQEAAAAAKBOZAQAAAAAoE5kBAAAAACibbfFFx+NxBoPB28twOEySvHnzJgcH B7/6/NFolN3d3Xz99deZmZnJ7Oxs5ufns7CwkIWFhczNzf3W3wIAAAAAAGkUmUejUX744Ydsbm5m e3s7+/v7mUwmGQ6H2d/f/9XnDwaD/O1vf8uLFy/S7/czPz+fBw8e5LPPPsvDhw9z586dBt8FAAAA AADNIvPu7m6++eabbG1t5eXLl5lMJplMJv/y83d3d9Pr9TI/P5/j4+OcnZ1lZWVFZAYAAACAjur1 ej/rgr1e72f/verXT8PI/PLly3z//fc5Pj7+l4H5ly52PO/t7WVmZiZffPHFR54WAAAAAPgYer3e 29j7yxD807+7qtfPVJPIDAAAAACwsLCQtbW1t+/d9tP3YbuMCPyxr5+pfosvOjs7m9u3b+fRo0e5 efPme/0P7fV6uXHjRu7cufP23wMAAAAA3bO6uprHjx9nbW0tMzMzWVtbyxdffJHV1dX0+/0PjsAf +/qZarKTeXZ2Nnfv3s1wOMzCwkJWV1ff+ZQZF+dkvnjjP5EZAAAAALppbW0tX375ZZaWlnLz5s3c vXs39+7dy9ra2qUE4I99/Uw1i8z379/PyspKHj9+nOFwmCTvHJn7/f7PtrYDAAAAAN3S6/Vy+/bt LC4u5vPPP8/JyUnm5uYyPz+fxcXFK3/9/KhJZO73+1laWsrS0lKLLw8AAAAAXAEfexOpTaq/jSbn ZAYAAAAA4HoQmQEAAAAAKBOZAQAAAAAoE5kBAAAAACgTmQEAAAAAKBOZAQAAAAAoE5kBAAAAACgT mQEAAAAAKBOZAQAAAAAoE5kBAAAAACgTmQEAAAAAKBOZAQAAAAAoE5kBAAAAACgTmQEAAAAAKBOZ AQAAAAAom3327FnrGSDr6+utR4A8+epJ6xEgT/7N7ZD2nv7H09YjdN6T/+O+TFtP/+x+THt6A1eB 2yH8NuxkBgAAAACgTGQGAAAAAKBMZAYAAAAAoExkBgAAAACgTGQGAAAAAKBstvUAwCUZJxm1HqKj RpmuHwBTnlPqzuI5hathnOnt0X25xv2Yq8J9+cNMWg8Anw6RGa6LoyR7rYfoqHGm6wfA1EGmB7S8 v9PzC7R2lGQYt8eq49YDwLmjTJ+Tb7QepKMOWw8An47ZjY2N1jN03+PWA3TcQbK+vt56CgAAAC7R xl83krlML7w/gfRSbPx1I1lMMtN6kg573noAusBO5suwmGSl9RB88paTPGg9REeNYhc4wE/dSnK7 9RAddRhRgKthOY5TPsR+6wGuieXzy1LrQTpqL9NjlVtJFhrP0lU7mf7m6lq82FF10HoAusIb/wEA AAAAUCYyAwAAAABQJjIDAAAAAFAmMgMAAAAAUCYyAwAAAABQJjIDAAAAAFAmMgMAAAAAUCYyAwAA AABQJjIDAAAAAFAmMgMAAAAAUCYyAwAAAABQJjIDAAAAAFAmMgMAAAAAUCYyAwAAAABQJjIDAAAA AFAmMgMAAAAAUCYyAwAAAABQJjIDAAAAAFAmMgMAAAAAUCYyAwAAAABQJjIDAAAAAFAmMgMAAAAA UCYyAwAAAABQJjIDAAAAAFAmMgMAAAAAUCYyAwAAAABQJjIDAAAAAFAmMgMAAAAAUCYyAwAAAABQ JjIDAAAAAFAmMgMAAAAAUCYyAwAAAABQJjIDAAAAAFAmMgMAAAAAUCYyAwAAAABQJjIDAAAAAFAm MgMAAAAAUCYyAwAAAABQJjIDAAAAAFAmMgMAAAAAUCYyAwAAAABQJjIDAAAAAFAmMgMAAAAAUCYy AwAAAABQJjIDAAAAAFAmMgMAAAAAUCYyAwAAAABQJjIDAAAAAFAmMgMAAAAAUCYyAwAAAABQJjID AAAAAFAmMgMAAAAAUCYyAwAAAABQJjIDAAAAAFAmMgMAAAAAUCYyAwAAAABQJjIDAAAAAFAmMgMA AAAAUCYyAwAAAABQJjIDAAAAAFAmMgMAAAAAUCYyAwAAAABQJjIDAAAAAFAmMgMAAAAAUCYyAwAA AABQJjIDAAAAAFAmMgMAAAAAUCYyAwAAAABQJjIDAAAAAFAmMgMAAAAAUCYyAwAAAABQNtt6AOBy PPnqSesRIM+ePWs9AmR9fb31CJ335E+eU2jPc8qH8bMhAPBbspMZAAAAAIAykRkAAAAAgDKRGQAA AACAMpEZAAAAAIAykRkAAAAAgLLZ1gNcC+Mkw9ZDdNhZ6wEAAAC4dGfnF8fLNaNM128Ua1h1lmmz GSXpNZ6lq8atB6ArRObLcHJ+oea49QAAAABcuuNMI59jvprDJJNMI9+NxrN01VGma5gkMy0HgetP ZL4sXhEDyMb/20iWW0/RUaNMD8B6sYZVwySDZH19vfUkwCXY+K+NZLH1FB117LGQK6QXx8tVvUwD qTW8HNYQPiqR+TIsJllpPUSHTf7nTwE6YjnJ/dZDdNRpkv1M3y3hXuNZumqQ5HXrIYBLs5bkVush OspjIVfF8vllqfUgHTWT6UaEW0kWGs/SVb1Md4KvJZlrPEtXHbQegK7wxn8AAAAAAJSJzAAAAAAA lInMAAAAAACUicwAAAAAAJSJzAAAAAAAlInMAAAAAACUicwAAAAAAJSJzAAAAAAAlInMAAAAAACU icwAAAAAAJSJzAAAAAAAlInMAAAAAACUicwAAAAAAJSJzAAAAAAAlInMAAAAAACUicwAAAAAAJSJ zAAAAAAAlInMAAAAAACUicwAAAAAAJSJzAAAAAAAlInMAAAAAACUicwAAAAAAJSJzAAAAAAAlInM AAAAAACUicwAAAAAAJSJzAAAAAAAlInMAAAAAACUicwAAAAAAJSJzAAAAAAAlInMAAAAAACUicwA AAAAAJSJzAAAAAAAlInMAAAAAACUicwAAAAAAJSJzAAAAAAAlInMAAAAAACUicwAAAAAAJSJzAAA AAAAlInMAAAAAACUicwAAAAAAJSJzAAAAAAAlInMAAAAAACUicwAAAAAAJSJzAAAAAAAlInMAAAA AACUicwAAAAAAJSJzAAAAAAAlInMAAAAAACUicwAAAAAAJSJzAAAAAAAlInMAAAAAACUicwAAAAA AJSJzAAAAAAAlInMAAAAAACUicwAAAAAAJSJzAAAAAAAlInMAAAAAACUicwAAAAAAJSJzAAAAAAA lInMAAAAAACUicwAAAAAAJSJzAAAAAAAlJKvVIkAABkrSURBVInMAAAAAACUicwAAAAAAJSJzAAA AAAAlP3/du5mt400PcPwox/LktV23EG22WSR0xgdR5Bs+kQMn0hv5kSkUxikJwhmmV2QRdJt64ei qCyKhNyzGekhez4V57oAwlr04sWLIqt4V7FFZgAAAAAAaiIzAAAAAAA1kRkAAAAAgJrIDAAAAABA TWQGAAAAAKAmMgMAAAAAUDtI8jh6iNn75yTvRw8xY/+d/O6ffjd6CsjFxcXoEQBehcvLy9EjzJ5z CqN5H/Ma+Czc3ucfPycfkpyOnmSm/ifJKsnHJCeDZ5mrL0n+c/QQzIEnmQEAAAAAqInMAAAAAADU RGYAAAAAAGoiMwAAAAAANZEZAAAAAIDa8egB9sJDksXoIWbsfvQAAAAA8ArdZ+oNHhHsLKPZbOth 9ADMhci8C4v4wNrG3egBAAAA4BXafF++HTrFfN0keUzyS5KjwbPAnhOZd+Fg/aJ29Yer5MPoKWZq leTL+m877Kx3eHFxMXoSgFfh6o9XybvRU8zU3fRyTmG0qz9cJSdJTkdPMlM3mZ4gfbt+8XJffRbu zFE8ydw6yBSZD2KH8BsTmXfhNMn70UPM2Gr97z8MnWK+Vt/8bYed5egBAF6Z90m+Hz3ETH1dv2C0 75KcxfeU1v9m+rXq+frFy3lqdDe+y/QwkRtGvVWSj5luvPFyX/7yfwKJ+zgAAAAAAGxBZAYAAAAA oCYyAwAAAABQE5kBAAAAAKiJzAAAAAAA1ERmAAAAAABqIjMAAAAAADWRGQAAAACAmsgMAAAAAEBN ZAYAAAAAoCYyAwAAAABQE5kBAAAAAKiJzAAAAAAA1ERmAAAAAABqIjMAAAAAADWRGQAAAACAmsgM AAAAAEBNZAYAAAAAoCYyAwAAAABQE5kBAAAAAKiJzAAAAAAA1ERmAAAAAABqIjMAAAAAADWRGQAA AACAmsgMAAAAAEBNZAYAAAAAoCYyAwAAAABQE5kBAAAAAKiJzAAAAAAA1ERmAAAAAABqIjMAAAAA ADWRGQAAAACAmsgMAAAAAEBNZAYAAAAAoCYyAwAAAABQE5kBAAAAAKiJzAAAAAAA1ERmAAAAAABq IjMAAAAAADWRGQAAAACAmsgMAAAAAEBNZAYAAAAAoCYyAwAAAABQE5kBAAAAAKiJzAAAAAAA1ERm AAAAAABqIjMAAAAAADWRGQAAAACAmsgMAAAAAEBNZAYAAAAAoCYyAwAAAABQE5kBAAAAAKiJzAAA AAAA1ERmAAAAAABqIjMAAAAAADWRGQAAAACAmsgMAAAAAEBNZAYAAAAAoCYyAwAAAABQE5kBAAAA AKiJzAAAAAAA1ERmAAAAAABqIjMAAAAAADWRGQAAAACAmsgMAAAAAEBNZAYAAAAAoCYyAwAAAABQ E5kBAAAAAKiJzAAAAAAA1ERmAAAAAABqIjMAAAAAALXj0QMAvBaXl5ejR5i9i4uL0SPMnuMQ9oP3 MgAAf0s8yQwAAAAAQE1kBgAAAACgJjIDAAAAAFATmQEAAAAAqInMAAAAAADUjkcPsBcektyOHmLG 7tf/2mFnFTvc1rc7BCBZxDmldRfnFF6H+yRH8V5uLTLt8C7THnm5xegB9sTmOKSzzNRs7jJ97+Pl HkYPwFyIzLuwiBPoNjYnzJ+HTjFfj7HDba3iwg3gW7dJDkYPMVOuC3ktNkFFHOjcZNrdY6ZIxcu5 wbEbd3/2Ly9zk+l9/CVuGMFvTGTehcP4H49sY7M7R2NnFTvc1nqHV/9+lXwYPcxMLZNcJxcXF6Mn mb2rn66S96OnmKnN07eHSb4bPMtcbXZ4FOeU1kOmc8p/XCXno4eZqdtMx+KbJGeDZ5mrmzx9R/Fe 7hxlClM+D3u+I+/GYRyH2ziM9/K2PAHOM3mL7cLbCALb2DwZ8PdDp5ivVZ4+9O2ws4wdbstPw3fn PI7D1m2mX3Qcxw5b15m+jL1J8v3gWebq6/p1kuTj4Fnm6pdMkfQ0bv62fs70mXgW31Nah5ludpzH DaOWX8TsxrtMn4WnoweZqc335Y+Zzs283JfRAzAX7i0CAAAAAFATmQEAAAAAqInMAAAAAADURGYA AAAAAGoiMwAAAAAANZEZAAAAAICayAwAAAAAQE1kBgAAAACgJjIDAAAAAFATmQEAAAAAqInMAAAA AADURGYAAAAAAGoiMwAAAAAANZEZAAAAAICayAwAAAAAQE1kBgAAAACgJjIDAAAAAFATmQEAAAAA qInMAAAAAADURGYAAAAAAGoiMwAAAAAANZEZAAAAAICayAwAAAAAQE1kBgAAAACgJjIDAAAAAFAT mQEAAAAAqInMAAAAAADURGYAAAAAAGoiMwAAAAAANZEZAAAAAICayAwAAAAAQE1kBgAAAACgJjID AAAAAFATmQEAAAAAqInMAAAAAADURGYAAAAAAGoiMwAAAAAANZEZAAAAAICayAwAAAAAQE1kBgAA AACgJjIDAAAAAFATmQEAAAAAqInMAAAAAADURGYAAAAAAGoiMwAAAAAANZEZAAAAAICayAwAAAAA QE1kBgAAAACgJjIDAAAAAFATmQEAAAAAqInMAAAAAADURGYAAAAAAGoiMwAAAAAANZEZAAAAAICa yAwAAAAAQE1kBgAAAACgJjIDAAAAAFATmQEAAAAAqInMAAAAAADURGYAAAAAAGoiMwAAAAAANZEZ AAAAAICayAwAAAAAQE1kBgAAAACgJjIDAAAAAFATmQEAAAAAqInMAAAAAADURGYAAAAAAGoiMwAA AAAANZEZAAAAAICayAwAAAAAQO149ACQJJ9++DR6hNn7/OPn0SNALi8vR48AwJ749C+uD7fh2hAA +GvyJDMAAAAAADWRGQAAAACAmsgMAAAAAEBNZAYAAAAAoCYyAwAAAABQOx49wF5YJrkePcSMLUYP sCcWcRy2Vnk6Du2ws4z38q54L/cW69cqdti6zbTDx9hh6ybOKdu6i3PKLiwyPVJ0NHqQmdqcUw6T HAyeZa68j3djken8vBo9yExtrg1vMn1n4eXsjWcSmXfhfv2i4+JjNxZJvoweYqa+jcx22Pl2h2zn No7D1uZmxzJ+q9XaRJWHiCqtb3dI5y6urXdhc8NImOrc5Ol9bIed29ED7IlFkq9xrd26y9PNczfd 4DclMu/CUXyZ3YYP+t04SvJm9BAztcrTcWiHnWWSo+Tqp6vkw+hhZmrzq5jjOA5bj3k6J9th5zFT VHFO6W32573cW0bU24WjeC9vYxP0vJd7ouhubN7HjsPOUabrm+MoYC3nZJ7JW2wXTpK8Hz3EjHlS ZTfOknw/eoiZWubpSRU77Nxnung7iB22Nk+cHcYOW7eZjsHj2GHrOtMO38QOW1/Xr5MkHwfPMlfH mZ4iZTtn65fvKZ2DTOfm8/ULRjnL9BDH6ehBZuohUyT9u0znZl7Oryx5Js/fAgAAAABQE5kBAAAA AKiJzAAAAAAA1ERmAAAAAABqIjMAAAAAADWRGQAAAACAmsgMAAAAAEBNZAYAAAAAoCYyAwAAAABQ E5kBAAAAAKiJzAAAAAAA1ERmAAAAAABqIjMAAAAAADWRGQAAAACAmsgMAAAAAEBNZAYAAAAAoCYy AwAAAABQE5kBAAAAAKiJzAAAAAAA1ERmAAAAAABqIjMAAAAAADWRGQAAAACAmsgMAAAAAEBNZAYA AAAAoCYyAwAAAABQE5kBAAAAAKiJzAAAAAAA1ERmAAAAAABqIjMAAAAAADWRGQAAAACAmsgMAAAA AEBNZAYAAAAAoCYyAwAAAABQE5kBAAAAAKiJzAAAAAAA1ERmAAAAAABqIjMAAAAAADWRGQAAAACA msgMAAAAAEBNZAYAAAAAoCYyAwAAAABQE5kBAAAAAKiJzAAAAAAA1ERmAAAAAABqIjMAAAAAADWR GQAAAACAmsgMAAAAAEBNZAYAAAAAoCYyAwAAAABQE5kBAAAAAKiJzAAAAAAA1ERmAAAAAABqIjMA AAAAADWRGQAAAACAmsgMAAAAAEBNZAYAAAAAoCYyAwAAAABQE5kBAAAAAKiJzAAAAAAA1ERmAAAA AABqIjMAAAAAADWRGQAAAACAmsgMAAAAAEBNZAYAAAAAoCYyAwAAAABQE5kBAAAAAKiJzAAAAAAA 1ERmAAAAAABqIjMAAAAAADWRGQAAAACA2vHoAYDd+PTDp9EjALAnPv/+8+gRZu/Tvzovb+vy8nL0 CLPm2nB7n3/0WQgAz+VJZgAAAAAAaiIzAAAAAAA1kRkAAAAAgJrIDAAAAABATWQGAAAAAKAmMgMA AAAAUDsePcBeWCb5OnqIGVuMHgAA+JXbuLZp/ZLp2hCYv0U8lrWN29ED7IlFkpskD6MHmam7JI9J rpPcD55lruyNZxKZd+E+3nTbEJkB4HVZRGRuLePaBvbF5r28GjrFfPks3I1FkoNoDq1Fpsh8E8ck /MZE5l04Wr/o2B0AvC5HSU5GDzFTq3jabEeu/nSVnI2eYqauk4uLi9FTzN9RkjfxedgS9HZjc05+ M3qQmbrLdG4+ifbQcl3DM4nMu3CS5P3oIWbMxQcAvC7nST6OHmKmvsbP63flPMmH0UPMlGNwN84y HYfnoweZqcfRA+yJs0y94XT0IDO1zBSZ38cNo9aX0QMwFy4/AAAAAACoicwAAAAAANREZgAAAAAA aiIzAAAAAAA1kRkAAAAAgJrIDAAAAABATWQGAAAAAKAmMgMAAAAAUBOZAQAAAACoicwAAAAAANRE ZgAAAAAAaiIzAAAAAAA1kRkAAAAAgJrIDAAAAABATWQGAAAAAKAmMgMAAAAAUBOZAQAAAACoicwA AAAAANREZgAAAAAAaiIzAAAAAAA1kRkAAAAAgJrIDAAAAABATWQGAAAAAKAmMgMAAAAAUBOZAQAA AACoicwAAAAAANREZgAAAAAAaiIzAAAAAAA1kRkAAAAAgJrIDAAAAABATWQGAAAAAKAmMgMAAAAA UBOZAQAAAACoicwAAAAAANREZgAAAAAAaiIzAAAAAAA1kRkAAAAAgJrIDAAAAABATWQGAAAAAKAm MgMAAAAAUBOZAQAAAACoicwAAAAAANREZgAAAAAAaiIzAAAAAAA1kRkAAAAAgJrIDAAAAABATWQG AAAAAKAmMgMAAAAAUBOZAQAAAACoicwAAAAAANREZgAAAAAAaiIzAAAAAAA1kRkAAAAAgJrIDAAA AABATWQGAAAAAKAmMgMAAAAAUBOZAQAAAACoicwAAAAAANREZgAAAAAAaiIzAAAAAAA1kRkAAAAA gJrIDAAAAABATWQGAAAAAKAmMgMAAAAAUBOZAQAAAACoicwAAAAAANREZgAAAAAAaiIzAAAAAAA1 kRkAAAAAgJrIDAAAAABA7Xj0AMBuXF5ejh4BgD3x6d8+jR5h9pyXGc0xuL1PP/gs3JbjEOBvhyeZ AQAAAACoicwAAAAAANREZgAAAAAAaiIzAAAAAAA1kRkAAAAAgJrIDAAAAABA7Xj0AHvhPskvo4eY sbvRAwAA8OpcJzkYPcRMXY8eANiZuyRfM3UHXu42yWOmHWoPneXoAZgLkXkXlvGm24aTJQAAf24R v7tsLUYPAOzMfaZQ+jB6kJm6zxSZb5McDZ4F9pzIvAtHSd6MHmLGbkYPsB+ufrpKvh89xUytkvzf +m877Cwz/aLjIMnHwbPM1WaHR0k+DJ5lrhaZnlKxw95dkuvk4uJi9CSzd/Wnq+R89BQzdZMpBpwk OR08y1w9rK8N3yZ5N3qYmfrqs3AXrn66mo7Bt6MnmamfM13XvM30mcjLLTIF+pPoNi0PVfJMIvMu nCR5P3qIGbsdPcCeOIuo0lrm6YkfO+zcZ9rjQeywtci0w8PYYes2002j49hh6zrT0z5sz3m5d7B+ ncYOt3GU6Tj0PaWzGj3AnjjLdMPNzY7O5lfT38VNt9Yi0/v5fYT61pfRAzAXfoAGAAAAAEBNZAYA AAAAoCYyAwAAAABQE5kBAAAAAKiJzAAAAAAA1ERmAAAAAABqIjMAAAAAADWRGQAAAACAmsgMAAAA AEBNZAYAAAAAoCYyAwAAAABQE5kBAAAAAKiJzAAAAAAA1ERmAAAAAABqIjMAAAAAADWRGQAAAACA msgMAAAAAEBNZAYAAAAAoCYyAwAAAABQE5kBAAAAAKiJzAAAAAAA1ERmAAAAAABqIjMAAAAAADWR GQAAAACAmsgMAAAAAEBNZAYAAAAAoCYyAwAAAABQE5kBAAAAAKiJzAAAAAAA1ERmAAAAAABqIjMA AAAAADWRGQAAAACAmsgMAAAAAEBNZAYAAAAAoCYyAwAAAABQE5kBAAAAAKiJzAAAAAAA1ERmAAAA AABqIjMAAAAAADWRGQAAAACAmsgMAAAAAEBNZAYAAAAAoCYyAwAAAABQE5kBAAAAAKiJzAAAAAAA 1ERmAAAAAABqIjMAAAAAADWRGQAAAACAmsgMAAAAAEBNZAYAAAAAoCYyAwAAAABQE5kBAAAAAKiJ zAAAAAAA1ERmAAAAAABqIjMAAAAAADWRGQAAAACAmsgMAAAAAEBNZAYAAAAAoCYyAwAAAABQE5kB AAAAAKiJzAAAAAAA1ERmAAAAAABqIjMAAAAAADWRGQAAAACAmsgMAAAAAEBNZAYAAAAAoCYyAwAA AABQE5kBAAAAAKiJzAAAAAAA1ERmAAAAAABqx6MHgCS5vLwcPQIAsOa8DOCzEABewpPMAAAAAADU RGYAAAAAAGoiMwAAAAAANZEZAAAAAICayAwAAAAAQE1kBgAAAACgdjx6gL2wSPLz6CFm7Gb0AHvi Jo7D1ipPx6EddpaZdngQO2xtdngUO2wtMu3wOHbYuovz8q5cx+McrZskt0keRg8yY18zfSaukjwO nmWurkcPsCc214fL0YPM1E2m3R1mek/zcpvzyVGSN4NnmSvvX57pIC47tvePoweYuS/rf78bOsV8 PWb6IpHYYWuVpy8Sdtixw+0tM10EJ3bY2uzwMMm7wbPM1WL9OkpyNniWubLD7d0luc90w+h08Cxz dZvpM/FNkreDZ5mrm0xh6mT94uXscHtfM33fexuBtLXZ4VmmczOd/xo9AHPgSeZdOI4P/G3crf/1 RayzytNdbTvsrDJ9mU3ssLWMHW7rPtMXsYPYYWuRaYeHscPWYaYvYgJpb/MIx5vY4bbssLfKdCy+ jR22NteHb+NmR2vzBO5p3Oxo3Wc6Fk8j1LcWmc7Lp1HAWp5k5pm8xXbhTZL3o4eYsc3Pcu2ws8pT qLfDzjJ2uK379esgdtha5OnLmB12Nj+HPI4dto4ynVdc2/Q2of4kdrit09hh6zHTZ+JZ7LC1uWn5 Lsn54FnmavMQwrv4hVHrPtMez+NmR+su07XNeYT61pe//J9A4v8UBwAAAADAFkRmAAAAAABqIjMA AAAAADWRGQAAAACAmsgMAAAAAEBNZAYAAAAAoCYyAwAAAABQE5kBAAAAAKiJzAAAAAAA1ERmAAAA AABqIjMAAAAAADWRGQAAAACAmsgMAAAAAEBNZAYAAAAAoCYyAwAAAABQE5kBAAAAAKiJzAAAAAAA 1ERmAAAAAABqIjMAAAAAADWRGQAAAACAmsgMAAAAAEBNZAYAAAAAoCYyAwAAAABQE5kBAAAAAKiJ zAAAAAAA1ERmAAAAAABqIjMAAAAAADWRGQAAAACAmsgMAAAAAEBNZAYAAAAAoCYyAwAAAABQE5kB AAAAAKiJzAAAAAAA1ERmAAAAAABqIjMAAAAAADWRGQAAAACAmsgMAAAAAEBNZAYAAAAAoCYyAwAA AABQE5kBAAAAAKiJzAAAAAAA1ERmAAAAAABqIjMAAAAAADWRGQAAAACAmsgMAAAAAEBNZAYAAAAA oCYyAwAAAABQE5kBAAAAAKiJzAAAAAAA1ERmAAAAAABqIjMAAAAAADWRGQAAAACAmsgMAAAAAEBN ZAYAAAAAoCYyAwAAAABQE5kBAAAAAKiJzAAAAAAA1ERmAAAAAABqIjMAAAAAADWRGQAAAACAmsgM AAAAAEBNZAYAAAAAoCYyAwAAAABQE5kBAAAAAKiJzAAAAAAA1ERmAAAAAABqIjMAAAAAADWRGQAA AACAmsgMAAAAAEBNZAYAAAAAoCYyAwAAAABQE5kBAAAAAKiJzAAAAAAA1ERmAAAAAABqIjMAAAAA ADWRGQAAAACAmsgMAAAAAEDtePQAe+Nm9AB7wA47j9/8bYcdO9ze6pu/7bDz8M3fdthZfvO3HXYc h9uzw+1tzimPscPW4zf/2uF2HmKH27LD7S1jh9u6z6/P0cDOHeTXeQUAAAAAAJ7N/y4DAAAAAICa yAwAAAAAQE1kBgAAAACgJjIDAAAAAFATmQEAAAAAqInMAAAAAADURGYAAAAAAGoiMwAAAAAANZEZ AAAAAICayAwAAAAAQE1kBgAAAACgJjIDAAAAAFATmQEAAAAAqInMAAAAAADURGYAAAAAAGoiMwAA AAAANZEZAAAAAICayAwAAAAAQE1kBgAAAACgJjIDAAAAAFATmQEAAAAAqInMAAAAAADURGYAAAAA AGoiMwAAAAAANZEZAAAAAICayAwAAAAAQE1kBgAAAACg9v+jHxcSZrxo2wAAAABJRU5ErkJggg== "
       id="image344"
       x="-263.0687"
       y="971.25403"
       transform="rotate(-8.3848768)" /><rect
       style="fill:url(#radialGradient2066);fill-opacity:1;stroke-width:0.396875;stroke-linecap:round;stroke-linejoin:round;opacity:1"
       id="rect1001"
       width="543.70508"
       height="456.55551"
       x="33.323383"
       y="38.799911" /><text
       xml:space="preserve"
       style="font-size:130.86px;line-height:120%;font-family:'Helvetica Neue';-inkscape-font-specification:'Helvetica Neue';font-variant-ligatures:historical-ligatures;font-variant-numeric:lining-nums tabular-nums slashed-zero;font-feature-settings:'ss06';text-align:center;writing-mode:lr-tb;text-anchor:middle;fill:#010000;fill-opacity:1;stroke-width:13.086;stroke-linecap:round;stroke-linejoin:round;filter:url(#filter7253)"
       x="249.87675"
       y="287.04257"
       id="text7251"
       transform="rotate(-8.9671725)"><tspan
         sodipodi:role="line"
         id="tspan7247"
         style="font-style:normal;font-variant:normal;font-weight:normal;font-stretch:normal;font-family:Supercomputer;-inkscape-font-specification:Supercomputer;fill:#010000;fill-opacity:1;stroke-width:13.086"
         x="249.87675"
         y="287.04257">Wire</tspan><tspan
         sodipodi:role="line"
         style="font-style:normal;font-variant:normal;font-weight:normal;font-stretch:normal;font-family:Supercomputer;-inkscape-font-specification:Supercomputer;fill:#010000;fill-opacity:1;stroke-width:13.086"
         x="249.87675"
         y="449.04584"
         id="tspan7249">world</tspan></text><text
       xml:space="preserve"
       style="font-size:130.86px;line-height:120%;font-family:'Helvetica Neue';-inkscape-font-specification:'Helvetica Neue';font-variant-ligatures:historical-ligatures;font-variant-numeric:lining-nums tabular-nums slashed-zero;font-feature-settings:'ss06';text-align:center;writing-mode:lr-tb;text-anchor:middle;fill:#f0952c;fill-opacity:1;stroke-width:13.086;stroke-linecap:round;stroke-linejoin:round"
       x="249.87675"
       y="287.04257"
       id="text289"
       transform="rotate(-8.9671725)"><tspan
         sodipodi:role="line"
         id="tspan287"
         style="font-style:normal;font-variant:normal;font-weight:normal;font-stretch:normal;font-family:Supercomputer;-inkscape-font-specification:Supercomputer;fill:#f0952c;fill-opacity:1;stroke-width:13.086"
         x="249.87675"
         y="287.04257">Wire</tspan><tspan
         sodipodi:role="line"
         style="font-style:normal;font-variant:normal;font-weight:normal;font-stretch:normal;font-family:Supercomputer;-inkscape-font-specification:Supercomputer;fill:#f0952c;fill-opacity:1;stroke-width:13.086"
         x="249.87675"
         y="449.04584"
         id="tspan1105">world</tspan></text><rect
       style="opacity:1;fill:#7ba7ee;fill-opacity:1;stroke-width:0.406268;stroke-linecap:round;stroke-linejoin:round"
       id="rect4354"
       width="37.046837"
       height="37.046837"
       x="247.3071"
       y="299.18384"
       transform="rotate(-8.412019)" /><rect
       style="opacity:1;fill:#3f7dc9;fill-opacity:1;stroke-width:0.406268;stroke-linecap:round;stroke-linejoin:round"
       id="rect6488"
       width="37.081512"
       height="4.0826926"
       x="247.40536"
       y="336.22519"
       transform="rotate(-8.412019)" /><rect
       style="opacity:1;fill:#254c7e;fill-opacity:1;stroke-width:0.406268;stroke-linecap:round;stroke-linejoin:round"
       id="rect7218"
       width="37.046837"
       height="37.046837"
       x="210.37776"
       y="299.14197"
       transform="rotate(-8.412019)" /><rect
       style="opacity:1;fill:#163458;fill-opacity:1;stroke-width:0.406268;stroke-linecap:round;stroke-linejoin:round"
       id="rect7220"
       width="37.081512"
       height="4.0826926"
       x="210.47603"
       y="336.18332"
       transform="rotate(-8.412019)" /><rect
       style="opacity:1;mix-blend-mode:normal;fill:#7ba7ee;fill-opacity:1;stroke-width:0.487434;stroke-linecap:round;stroke-linejoin:round;filter:url(#filter7243)"
       id="rect7241"
       width="44.448196"
       height="44.448196"
       x="243.60641"
       y="295.48315"
       transform="matrix(1.0450646,-0.15454573,0.15454573,1.0450646,-17.462173,-15.540875)" /></g></svg>
